%YAML 1.1
%TAG !u! tag:unity3d.com,2011:
--- !u!221 &22100000
AnimatorOverrideController:
  m_ObjectHideFlags: 0
  m_PrefabParentObject: {fileID: 0}
  m_PrefabInternal: {fileID: 0}
  m_Name: medium2
  m_Controller: {fileID: 9100000, guid: 1156abff146d57e4595ac2449fcb6d03, type: 2}
  m_Clips:
  - m_OriginalClip: {fileID: 7400000, guid: 79be612ee9f2dc64185c6e41fdc3a590, type: 2}
    m_OverrideClip: {fileID: 7400000, guid: 5a5d5241891eec943814f8f607859bba, type: 2}
  - m_OriginalClip: {fileID: 7400000, guid: 1bde317996cf71845ba38191f8806809, type: 2}
    m_OverrideClip: {fileID: 7400000, guid: 77ca219e816307e46a583452b7cd8382, type: 2}
  - m_OriginalClip: {fileID: 7400000, guid: ac4e6fbd5ba80184380167784cbd817a, type: 2}
    m_OverrideClip: {fileID: 7400000, guid: 416375a0338b0014f944dbf577c58476, type: 2}
